Sinusoidal reef size spectra
…
## # A tibble: 3 x 5
## # Groups:   site_code [3]
##   site_code lm_AIC_delta nls_AIC_delta lm2_AIC_delta hypothesis
##   <chr>     <chr>        <chr>         <chr>         <chr>     
## 1 NIN-S1    0.0          -0.1          -8.6          H1        
## 2 NIN-S2    0.0          0.3           -8.5          H1        
## 3 NSW47     0.0          -9.0          -15.3         H1

# H2: Nonlinear, continuous
lm_comparison_data %>% 
  filter(hypothesis == "H2")

## # A tibble: 41 x 5
## # Groups:   site_code [41]
##    site_code lm_AIC_delta nls_AIC_delta lm2_AIC_delta hypothesis
##    <chr>     <chr>        <chr>         <chr>         <chr>     
##  1 BS-S8     0.0          -23.9         0.0           H2        
##  2 DE4       0.0          -11.3         0.0           H2        
##  3 DE46      0.0          -4.6          0.0           H2        
##  4 DE7       0.0          -20.2         0.0           H2        
##  5 EMR1      0.0          -34.8         -5.1          H2        
##  6 EMR18     0.0          -16.7         -5.5          H2        
##  7 EMR2      0.0          -36.9         0.0           H2        
##  8 EMR20     0.0          -13.8         0.0           H2        
##  9 EMR25     0.0          -26.6         -5.2          H2        
## 10 EMR37     0.0          -17.5         0.0           H2        
## # ... with 31 more rows
…
